EESchema Schematic File Version 4
EELAYER 30 0
EELAYER END
$Descr A4 11693 8268
encoding utf-8
Sheet 1 1
Title "SGP40+SHT40 Breakout Board"
Date "2020-11-23"
Rev "X"
Comp ""
Comment1 ""
Comment2 ""
Comment3 ""
Comment4 ""
$EndDescr
$Comp
L sgp40:SGP40 U1
U 1 1 5FBC2CAA
P 3500 2350
F 0 "U1" H 3500 2765 50  0000 C CNN
F 1 "SGP40" H 3500 2674 50  0000 C CNN
F 2 "sgp40:SGP40" H 3500 2700 50  0001 C CNN
F 3 "https://www.sensirion.com/fileadmin/user_upload/customers/sensirion/Dokumente/9_Gas_Sensors/Datasheets/Sensirion_Gas_Sensors_SGP40_Datasheet.pdf" H 3500 2700 50  0001 C CNN
	1    3500 2350
	1    0    0    -1  
$EndComp
$Comp
L sgp40:PUSB3FR4 U2
U 1 1 5FBC2DF0
P 6500 2400
F 0 "U2" H 6500 2865 50  0000 C CNN
F 1 "PUSB3FR4" H 6500 2774 50  0000 C CNN
F 2 "sgp40:SOT1176-1" H 6500 2750 50  0001 C CNN
F 3 "" H 6500 2750 50  0001 C CNN
	1    6500 2400
	1    0    0    -1  
$EndComp
Wire Wire Line
	3900 2200 4100 2200
$Comp
L power:GND #PWR0101
U 1 1 5FBC46FA
P 4050 2500
F 0 "#PWR0101" H 4050 2250 50  0001 C CNN
F 1 "GND" V 4055 2372 50  0000 R CNN
F 2 "" H 4050 2500 50  0001 C CNN
F 3 "" H 4050 2500 50  0001 C CNN
	1    4050 2500
	0    -1   -1   0   
$EndComp
$Comp
L power:VDD #PWR0102
U 1 1 5FBC5AE2
P 4650 2350
F 0 "#PWR0102" H 4650 2200 50  0001 C CNN
F 1 "VDD" V 4665 2478 50  0000 L CNN
F 2 "" H 4650 2350 50  0001 C CNN
F 3 "" H 4650 2350 50  0001 C CNN
	1    4650 2350
	0    1    1    0   
$EndComp
$Comp
L power:VDD #PWR0103
U 1 1 5FBC5C8A
P 2100 2200
F 0 "#PWR0103" H 2100 2050 50  0001 C CNN
F 1 "VDD" V 2115 2327 50  0000 L CNN
F 2 "" H 2100 2200 50  0001 C CNN
F 3 "" H 2100 2200 50  0001 C CNN
	1    2100 2200
	0    -1   -1   0   
$EndComp
$Comp
L power:GND #PWR0104
U 1 1 5FBC6350
P 2950 2350
F 0 "#PWR0104" H 2950 2100 50  0001 C CNN
F 1 "GND" V 2955 2222 50  0000 R CNN
F 2 "" H 2950 2350 50  0001 C CNN
F 3 "" H 2950 2350 50  0001 C CNN
	1    2950 2350
	0    1    1    0   
$EndComp
Wire Wire Line
	3100 2350 2950 2350
Text Label 4100 2200 2    50   ~ 0
SCL
Text Label 2900 2500 0    50   ~ 0
SDA
Wire Wire Line
	3100 2500 2900 2500
Wire Wire Line
	3900 2500 4050 2500
Wire Wire Line
	6100 2200 5850 2200
$Comp
L power:VDD #PWR0105
U 1 1 5FBCE235
P 5900 2600
F 0 "#PWR0105" H 5900 2450 50  0001 C CNN
F 1 "VDD" V 5915 2727 50  0000 L CNN
F 2 "" H 5900 2600 50  0001 C CNN
F 3 "" H 5900 2600 50  0001 C CNN
	1    5900 2600
	0    -1   -1   0   
$EndComp
Text Label 5850 2300 0    50   ~ 0
SCL
Text Label 5850 2200 0    50   ~ 0
SDA
Wire Wire Line
	6100 2300 5850 2300
Wire Wire Line
	6100 2600 5900 2600
NoConn ~ 6100 2500
$Comp
L power:GND #PWR0106
U 1 1 5FBCF511
P 5900 2400
F 0 "#PWR0106" H 5900 2150 50  0001 C CNN
F 1 "GND" V 5905 2272 50  0000 R CNN
F 2 "" H 5900 2400 50  0001 C CNN
F 3 "" H 5900 2400 50  0001 C CNN
	1    5900 2400
	0    1    1    0   
$EndComp
Wire Wire Line
	6100 2400 5900 2400
$Comp
L power:GND #PWR0107
U 1 1 5FBCF813
P 7050 2400
F 0 "#PWR0107" H 7050 2150 50  0001 C CNN
F 1 "GND" V 7055 2272 50  0000 R CNN
F 2 "" H 7050 2400 50  0001 C CNN
F 3 "" H 7050 2400 50  0001 C CNN
	1    7050 2400
	0    -1   -1   0   
$EndComp
Wire Wire Line
	6900 2400 7050 2400
$Comp
L Device:C C2
U 1 1 5FBD23C7
P 4500 2650
F 0 "C2" H 4615 2696 50  0000 L CNN
F 1 "1uF" H 4615 2605 50  0000 L CNN
F 2 "Capacitor_SMD:C_0603_1608Metric" H 4538 2500 50  0001 C CNN
F 3 "~" H 4500 2650 50  0001 C CNN
	1    4500 2650
	1    0    0    -1  
$EndComp
$Comp
L Device:R R1
U 1 1 5FBD273B
P 2450 2200
F 0 "R1" V 2243 2200 50  0000 C CNN
F 1 "4.7R" V 2334 2200 50  0000 C CNN
F 2 "Resistor_SMD:R_0603_1608Metric" V 2380 2200 50  0001 C CNN
F 3 "~" H 2450 2200 50  0001 C CNN
	1    2450 2200
	0    1    1    0   
$EndComp
$Comp
L Device:C C1
U 1 1 5FBD2ABD
P 2850 1900
F 0 "C1" H 2965 1946 50  0000 L CNN
F 1 "1uF" H 2965 1855 50  0000 L CNN
F 2 "Capacitor_SMD:C_0603_1608Metric" H 2888 1750 50  0001 C CNN
F 3 "~" H 2850 1900 50  0001 C CNN
	1    2850 1900
	1    0    0    -1  
$EndComp
Wire Wire Line
	2600 2200 2850 2200
Wire Wire Line
	2300 2200 2100 2200
Wire Wire Line
	3900 2350 4500 2350
Wire Wire Line
	4500 2350 4500 2500
Connection ~ 4500 2350
Wire Wire Line
	4500 2350 4650 2350
$Comp
L power:GND #PWR0108
U 1 1 5FBDC454
P 4500 2800
F 0 "#PWR0108" H 4500 2550 50  0001 C CNN
F 1 "GND" H 4505 2627 50  0000 C CNN
F 2 "" H 4500 2800 50  0001 C CNN
F 3 "" H 4500 2800 50  0001 C CNN
	1    4500 2800
	1    0    0    -1  
$EndComp
Wire Wire Line
	2850 2050 2850 2200
Connection ~ 2850 2200
Wire Wire Line
	2850 2200 3100 2200
$Comp
L power:GND #PWR0109
U 1 1 5FBDD48B
P 2850 1750
F 0 "#PWR0109" H 2850 1500 50  0001 C CNN
F 1 "GND" H 2855 1577 50  0000 C CNN
F 2 "" H 2850 1750 50  0001 C CNN
F 3 "" H 2850 1750 50  0001 C CNN
	1    2850 1750
	-1   0    0    1   
$EndComp
$Comp
L power:GND #PWR0110
U 1 1 5FBDDF69
P 3500 2700
F 0 "#PWR0110" H 3500 2450 50  0001 C CNN
F 1 "GND" H 3505 2527 50  0000 C CNN
F 2 "" H 3500 2700 50  0001 C CNN
F 3 "" H 3500 2700 50  0001 C CNN
	1    3500 2700
	1    0    0    -1  
$EndComp
$Comp
L Connector_Generic:Conn_01x04 J1
U 1 1 5FBE88B8
P 8800 2350
F 0 "J1" H 8880 2342 50  0000 L CNN
F 1 "Conn_01x04" H 8880 2251 50  0000 L CNN
F 2 "Connector_PinHeader_2.54mm:PinHeader_1x04_P2.54mm_Vertical" H 8800 2350 50  0001 C CNN
F 3 "~" H 8800 2350 50  0001 C CNN
	1    8800 2350
	1    0    0    -1  
$EndComp
Text Label 8400 2550 0    50   ~ 0
SDA
Text Label 8400 2450 0    50   ~ 0
SCL
$Comp
L power:GND #PWR0111
U 1 1 5FBEA67D
P 8350 2350
F 0 "#PWR0111" H 8350 2100 50  0001 C CNN
F 1 "GND" V 8355 2222 50  0000 R CNN
F 2 "" H 8350 2350 50  0001 C CNN
F 3 "" H 8350 2350 50  0001 C CNN
	1    8350 2350
	0    1    1    0   
$EndComp
$Comp
L power:VDD #PWR0112
U 1 1 5FBEBD43
P 8350 2250
F 0 "#PWR0112" H 8350 2100 50  0001 C CNN
F 1 "VDD" V 8365 2377 50  0000 L CNN
F 2 "" H 8350 2250 50  0001 C CNN
F 3 "" H 8350 2250 50  0001 C CNN
	1    8350 2250
	0    -1   -1   0   
$EndComp
Wire Wire Line
	8350 2250 8600 2250
Wire Wire Line
	8600 2350 8350 2350
Wire Wire Line
	8400 2450 8600 2450
Wire Wire Line
	8600 2550 8400 2550
$Comp
L Mechanical:MountingHole H1
U 1 1 5FBFE562
P 10100 2250
F 0 "H1" H 10200 2296 50  0000 L CNN
F 1 "MountingHole" H 10200 2205 50  0000 L CNN
F 2 "MountingHole:MountingHole_2.2mm_M2" H 10100 2250 50  0001 C CNN
F 3 "~" H 10100 2250 50  0001 C CNN
	1    10100 2250
	1    0    0    -1  
$EndComp
$Comp
L Mechanical:MountingHole H2
U 1 1 5FBFF140
P 10100 2500
F 0 "H2" H 10200 2546 50  0000 L CNN
F 1 "MountingHole" H 10200 2455 50  0000 L CNN
F 2 "MountingHole:MountingHole_2.2mm_M2" H 10100 2500 50  0001 C CNN
F 3 "~" H 10100 2500 50  0001 C CNN
	1    10100 2500
	1    0    0    -1  
$EndComp
$Comp
L sgp40:SHT40 U3
U 1 1 5FBCD760
P 3500 3700
F 0 "U3" H 3500 4015 50  0000 C CNN
F 1 "SHT40" H 3500 3924 50  0000 C CNN
F 2 "sgp40:SHT40" H 3500 3450 50  0001 C CNN
F 3 "https://www.sensirion.com/fileadmin/user_upload/customers/sensirion/Dokumente/2_Humidity_Sensors/Datasheets/Sensirion_Humidity_Sensors_SHT4x_Datasheet.pdf" H 3550 3750 50  0001 C CNN
	1    3500 3700
	1    0    0    -1  
$EndComp
Text Label 2950 3650 0    50   ~ 0
SDA
Wire Wire Line
	3150 3650 2950 3650
Wire Wire Line
	3150 3800 2950 3800
Text Label 2950 3800 0    50   ~ 0
SCL
$Comp
L power:VDD #PWR0113
U 1 1 5FBD3AA2
P 4150 3950
F 0 "#PWR0113" H 4150 3800 50  0001 C CNN
F 1 "VDD" V 4165 4078 50  0000 L CNN
F 2 "" H 4150 3950 50  0001 C CNN
F 3 "" H 4150 3950 50  0001 C CNN
	1    4150 3950
	0    1    1    0   
$EndComp
$Comp
L power:GND #PWR0114
U 1 1 5FBD464D
P 4150 3550
F 0 "#PWR0114" H 4150 3300 50  0001 C CNN
F 1 "GND" H 4155 3377 50  0000 C CNN
F 2 "" H 4150 3550 50  0001 C CNN
F 3 "" H 4150 3550 50  0001 C CNN
	1    4150 3550
	0    -1   -1   0   
$EndComp
$Comp
L Device:C C3
U 1 1 5FBD586B
P 4050 3750
F 0 "C3" H 4165 3796 50  0000 L CNN
F 1 "100nF" H 4165 3705 50  0000 L CNN
F 2 "Capacitor_SMD:C_0603_1608Metric" H 4088 3600 50  0001 C CNN
F 3 "~" H 4050 3750 50  0001 C CNN
	1    4050 3750
	1    0    0    -1  
$EndComp
Wire Wire Line
	3850 3650 3900 3650
Wire Wire Line
	3900 3650 3900 3600
Wire Wire Line
	3900 3600 4050 3600
Wire Wire Line
	4150 3550 4050 3550
Wire Wire Line
	4050 3550 4050 3600
Connection ~ 4050 3600
Wire Wire Line
	3850 3800 3900 3800
Wire Wire Line
	3900 3800 3900 3900
Wire Wire Line
	3900 3900 4050 3900
Wire Wire Line
	4050 3900 4050 3950
Wire Wire Line
	4050 3950 4150 3950
Connection ~ 4050 3900
$EndSCHEMATC
